<?xml version="1.0" encoding="utf-8"?>
<!-- Generator: Adobe Illustrator 15.0.0, SVG Export Plug-In . SVG Version: 6.00 Build 0)  -->
<!DOCTYPE svg PUBLIC "-//W3C//DTD SVG 1.1//EN" "http://www.w3.org/Graphics/SVG/1.1/DTD/svg11.dtd">
<svg version="1.1" id="Layer_1" xmlns="http://www.w3.org/2000/svg" xmlns:xlink="http://www.w3.org/1999/xlink" x="0px" y="0px"
	 width="141.73px" height="141.73px" viewBox="0 0 141.73 141.73" enable-background="new 0 0 141.73 141.73" xml:space="preserve">
<g>
	<rect fill="#0065BD" width="141.73" height="141.73"/>
	<g>
		<path fill="#FFFFFF" d="M113.203,20.475v22.36h9.253v-22.36h7.978v-6.823h-25.258v6.823H113.203z M82.799,13.651h-9.252v18.412
			c0,8.155,6.278,11.46,13.832,11.46s13.831-3.305,13.831-11.46V13.651h-9.251V31.29c0,3.307-1.985,4.766-4.58,4.766
			c-2.598,0-4.58-1.459-4.58-4.766V13.651z M47.77,42.835h11.424l10.245-29.184H59.054L53.576,34.21h-0.191l-5.474-20.559H37.524
			L47.77,42.835z M9.621,28.244c0,9.313,7.226,15.065,16.667,15.065c3.825,0,7.034-0.904,8.971-1.803v-7.34
			c-1.841,0.901-3.968,1.673-7.318,1.673c-3.353,0-8.214-2.316-8.214-7.596c0-5.28,4.437-7.77,8.731-7.77
			c2.929,0,4.96,0.602,6.754,1.416v-7.252c-1.89-0.773-4.25-1.375-8.026-1.375C17.694,13.264,9.621,18.929,9.621,28.244"/>
	</g>
	<polygon fill="#FFFFFF" points="15.608,6.19 21.65,12.365 30.736,12.365 36.778,6.19 29.281,6.19 26.282,9.158 26.106,9.158 
		23.105,6.19 	"/>
	<g>
		<path fill="#FFFFFF" d="M35.395,101.575v6.664H22.674v4.772h12.579v6.493H22.674v11.307h-9.268v-29.236H35.395z"/>
		<path fill="#FFFFFF" d="M34.926,130.511v-6.751c0.947,0.388,1.94,0.731,3.453,0.731c2.933,0,4.918-1.59,4.918-3.999v-18.917h9.27
			v19.22c0,6.276-4.068,10.533-11.304,10.533C38.899,131.328,36.298,130.939,34.926,130.511z"/>
		<path fill="#FFFFFF" d="M81.889,101.575v6.664H69.169v4.772h12.578v6.493H69.169v11.307h-9.27v-29.236H81.889z"/>
		<path fill="#FFFFFF" d="M87.569,101.575h9.27v29.236h-9.27V101.575z"/>
	</g>
</g>
</svg>
