<?xml version="1.0" encoding="utf-8"?>
<!-- Generator: Adobe Illustrator 15.0.0, SVG Export Plug-In . SVG Version: 6.00 Build 0)  -->
<!DOCTYPE svg PUBLIC "-//W3C//DTD SVG 1.1//EN" "http://www.w3.org/Graphics/SVG/1.1/DTD/svg11.dtd">
<svg version="1.1" id="Layer_1" xmlns="http://www.w3.org/2000/svg" xmlns:xlink="http://www.w3.org/1999/xlink" x="0px" y="0px"
	 width="141.73px" height="141.73px" viewBox="0 0 141.73 141.73" enable-background="new 0 0 141.73 141.73" xml:space="preserve">
<g>
	<rect fill="#0065BD" width="141.729" height="141.729"/>
	<g>
		<path fill="#FFFFFF" d="M113.203,20.474v22.362h9.253V20.474h7.978V13.65h-25.259v6.824H113.203z M82.798,13.65h-9.253v18.413
			c0,8.155,6.278,11.459,13.832,11.459c7.555,0,13.834-3.304,13.834-11.459V13.65h-9.254v17.642c0,3.304-1.981,4.763-4.58,4.763
			c-2.597,0-4.579-1.458-4.579-4.763V13.65z M47.769,42.836h11.423L69.438,13.65H59.053l-5.477,20.558h-0.191L47.91,13.65H37.522
			L47.769,42.836z M9.621,28.243c0,9.314,7.225,15.065,16.667,15.065c3.825,0,7.034-0.903,8.97-1.803v-7.339
			c-1.84,0.901-3.967,1.674-7.317,1.674c-3.352,0-8.215-2.317-8.215-7.597s4.438-7.769,8.733-7.769c2.928,0,4.959,0.602,6.753,1.417
			v-7.254c-1.889-0.771-4.25-1.372-8.026-1.372C17.693,13.265,9.621,18.929,9.621,28.243"/>
	</g>
	<polygon fill="#FFFFFF" points="15.607,6.19 21.65,12.365 30.734,12.365 36.777,6.19 29.279,6.19 26.281,9.159 26.105,9.159 
		23.104,6.19 	"/>
	<g>
		<path fill="#FFFFFF" d="M35.395,101.574v6.663H22.673v4.774h12.579v6.491H22.673v11.308h-9.27v-29.236H35.395z"/>
		<path fill="#FFFFFF" d="M39.94,129.263v-7.653c2.081,1.333,6.383,3.011,10.639,3.011c3.122,0,4.824-0.817,4.824-2.279
			c0-1.161-1.182-1.676-2.931-2.063c-2.081-0.473-3.358-0.732-5.77-1.291c-4.352-0.987-7.141-3.824-7.141-8.34
			c0-5.934,5.911-9.76,13.903-9.76c3.783,0,7.187,0.688,9.269,1.505v7.267c-1.607-0.818-4.871-1.936-8.796-1.936
			c-3.593,0-5.201,0.815-5.201,2.106c0,1.118,0.945,1.678,3.121,2.106c1.607,0.301,2.791,0.475,4.917,0.946
			c5.249,1.16,7.945,3.955,7.945,8.728c0,4.86-4.871,9.889-13.667,9.889C46.229,131.498,42.542,130.596,39.94,129.263z"/>
	</g>
</g>
</svg>
