<?xml version="1.0" encoding="utf-8"?>
<!-- Generator: Adobe Illustrator 15.0.0, SVG Export Plug-In . SVG Version: 6.00 Build 0)  -->
<!DOCTYPE svg PUBLIC "-//W3C//DTD SVG 1.1//EN" "http://www.w3.org/Graphics/SVG/1.1/DTD/svg11.dtd">
<svg version="1.1" id="Layer_1" xmlns="http://www.w3.org/2000/svg" xmlns:xlink="http://www.w3.org/1999/xlink" x="0px" y="0px"
	 width="141.73px" height="141.73px" viewBox="0 0 141.73 141.73" enable-background="new 0 0 141.73 141.73" xml:space="preserve">
<g>
	<rect fill="#0065BD" width="141.73" height="141.731"/>
	<g>
		<path fill="#FFFFFF" d="M113.202,20.477v22.361h9.253V20.477h7.978v-6.823h-25.257v6.823H113.202z M82.799,13.654h-9.254v18.411
			c0,8.157,6.279,11.461,13.833,11.461c7.555,0,13.832-3.304,13.832-11.461V13.654h-9.252v17.639c0,3.304-1.983,4.766-4.58,4.766
			s-4.579-1.461-4.579-4.766V13.654z M47.769,42.838h11.424l10.246-29.184H59.053l-5.478,20.558h-0.191l-5.474-20.558H37.523
			L47.769,42.838z M9.621,28.246c0,9.314,7.225,15.066,16.667,15.066c3.825,0,7.034-0.903,8.97-1.806v-7.338
			c-1.84,0.9-3.967,1.675-7.318,1.675c-3.352,0-8.214-2.32-8.214-7.598s4.437-7.769,8.732-7.769c2.928,0,4.959,0.602,6.753,1.418
			v-7.254c-1.89-0.772-4.25-1.374-8.026-1.374C17.694,13.267,9.621,18.932,9.621,28.246"/>
	</g>
	<polygon fill="#FFFFFF" points="15.607,6.195 21.65,12.37 30.735,12.37 36.778,6.195 29.279,6.195 26.282,9.161 26.105,9.161 
		23.104,6.195 	"/>
	<g>
		<path fill="#FFFFFF" d="M12.27,129.267v-7.653c2.08,1.331,6.384,3.009,10.641,3.009c3.121,0,4.823-0.815,4.823-2.279
			c0-1.161-1.183-1.676-2.932-2.063c-2.081-0.472-3.358-0.729-5.769-1.29c-4.352-0.987-7.141-3.825-7.141-8.34
			c0-5.935,5.912-9.76,13.903-9.76c3.782,0,7.188,0.687,9.268,1.505v7.266c-1.607-0.815-4.87-1.936-8.796-1.936
			c-3.594,0-5.201,0.818-5.201,2.106c0,1.12,0.945,1.678,3.121,2.106c1.609,0.301,2.791,0.475,4.919,0.946
			c5.249,1.163,7.944,3.955,7.944,8.729c0,4.858-4.871,9.887-13.667,9.887C18.559,131.5,14.871,130.598,12.27,129.267z"/>
		<path fill="#FFFFFF" d="M42.398,120.021v-18.445h9.271v17.673c0,3.311,1.985,4.771,4.586,4.771c2.601,0,4.586-1.461,4.586-4.771
			v-17.673h9.271v18.445c0,8.169-6.291,11.479-13.857,11.479S42.398,128.19,42.398,120.021z M55.073,93.193h10.783l-6.669,6.62
			h-7.85L55.073,93.193z"/>
		<path fill="#FFFFFF" d="M75.083,124.365l13.432-15.952H75.367v-6.837h24.733v6.148l-13.668,16.253h13.903v6.837H75.083V124.365z"
			/>
	</g>
</g>
</svg>
